<svg width="1318" height="513" viewBox="0 0 1318 513" fill="none" xmlns="http://www.w3.org/2000/svg">
<path d="M665.325 209.771C644.394 189.148 634.128 184.193 613.658 162.822C634.166 167.787 644.474 170.285 665.325 175.299C665.325 191.7 665.325 194.171 665.325 209.771Z" fill="#DED8D0"/>
<path d="M665.325 345.214C633.536 318.122 618.083 308.994 587.271 281.084C618.125 278.463 633.646 279.537 665.282 276.764C665.282 293.59 665.295 303.694 665.308 313.902C665.316 323.217 665.325 332.525 665.325 344.441C665.325 344.445 665.325 344.449 665.325 344.452C665.325 344.499 665.325 344.547 665.325 344.597C665.325 344.604 665.325 344.61 665.325 344.621C665.325 344.665 665.325 344.706 665.325 344.749C665.325 344.764 665.325 344.777 665.325 344.79C665.325 344.827 665.325 344.864 665.325 344.905C665.325 344.979 665.325 345.055 665.325 345.129C665.325 345.157 665.325 345.183 665.325 345.214Z" fill="#DED8D0"/>
<path d="M695.672 224.481C683.516 218.73 677.48 215.783 665.325 209.771C665.325 196.269 665.325 189.406 665.325 175.299C698.614 167.252 715.313 163.194 748.658 155.081C727.436 183.692 716.865 197.495 695.672 224.481Z" fill="#F0ECE5"/>
<path d="M685.118 352.308C677.214 349.498 673.237 348.073 665.325 345.213C665.325 345.183 665.325 345.157 665.325 345.129C665.325 345.055 665.325 344.976 665.325 344.905C665.325 344.864 665.325 344.827 665.325 344.79C665.325 344.777 665.325 344.764 665.325 344.749C665.325 344.706 665.325 344.664 665.325 344.621C665.325 344.61 665.325 344.604 665.325 344.597C665.325 344.547 665.325 344.499 665.325 344.452C665.325 344.449 665.325 344.445 665.325 344.441C665.325 332.524 665.316 323.217 665.308 313.902C665.295 302.941 665.282 291.978 665.282 276.764C665.299 276.758 665.312 276.751 665.325 276.744C676.297 270.594 681.732 267.469 692.68 261.292C714.654 270.604 725.584 275.096 747.428 283.909C724.874 306.283 704.354 329.255 685.118 352.308Z" fill="#F0ECE5"/>
<path d="M777.34 359.815C790.937 343.592 805.206 327.728 820.279 312.432C826.957 315.001 830.292 316.233 836.894 318.789C813.178 335.289 801.212 343.487 777.34 359.815Z" fill="#F0ECE5"/>
<path d="M747.06 367.732C737.165 361.731 725.677 353.959 709.945 351.404C727.6 330.433 746.447 309.65 766.9 289.394C779.33 294.362 793.595 297.608 806.047 302.332C784.863 323.328 765.399 345.298 747.06 367.732Z" fill="#B0E6FA"/>
<path d="M791.757 269.613V252.689H668.372L668.368 250.784H770.624V269.613H791.757V252.689V269.613H812.891V233.863C812.891 229.406 810.638 225.046 806.703 221.895C802.768 218.745 797.324 216.937 791.757 216.937H647.239C641.672 216.937 636.228 218.745 632.293 221.895C628.358 225.046 626.105 229.406 626.105 233.863V269.613C626.105 274.067 628.358 278.43 632.293 281.577C636.228 284.729 641.672 286.536 647.239 286.536H791.757C797.324 286.536 802.768 284.729 806.703 281.577C810.638 278.426 812.891 274.067 812.891 269.613H791.757Z" fill="#F2F2F0"/>
<path d="M844.759 242.589V225.662H615.369V223.767H823.626V242.589H844.759V225.662V242.589H865.893V206.843C865.893 202.385 863.64 198.029 859.705 194.875C855.77 191.723 850.326 189.92 844.759 189.92H594.236C588.67 189.92 583.226 191.723 579.291 194.875C575.356 198.026 573.099 202.385 573.099 206.843V242.589C573.099 247.043 575.356 251.403 579.291 254.555C583.226 257.705 588.67 259.513 594.236 259.513H844.759C850.326 259.513 855.77 257.705 859.701 254.555C863.64 251.403 865.893 247.043 865.893 242.589H844.759Z" fill="#F2F2F0"/>
<path d="M1097.52 186.887H1076.39H1086.72L1079.42 181.031C1077.58 182.474 1076.38 184.646 1076.39 186.887H1086.72L1079.42 181.031L1086.72 186.883V178.608C1083.93 178.601 1081.22 179.562 1079.42 181.031L1086.72 186.883V178.608V186.874L1094.02 181.025C1092.22 179.562 1089.52 178.601 1086.72 178.608V186.874L1094.02 181.025L1086.71 186.883L1097.05 186.887C1097.06 184.637 1095.85 182.463 1094.02 181.025L1086.71 186.883L1097.05 186.887V40.2987H1086.71L1094.02 46.1577C1095.85 44.7192 1097.06 42.5462 1097.05 40.2987H1086.71L1094.02 46.1577L1086.72 40.3089V48.5743C1089.52 48.5811 1092.22 47.6232 1094.02 46.1577L1086.72 40.3089V48.5743V40.2987L1079.42 46.1509C1081.22 47.6198 1083.93 48.5811 1086.72 48.5743V40.2987L1079.42 46.1509L1086.72 40.2987H1076.39C1076.38 42.536 1077.58 44.709 1079.42 46.1509L1086.72 40.2987H1076.39V186.887H1097.52H1118.66V40.2987C1118.66 33.2856 1115.05 26.7903 1109.3 22.2176C1103.59 17.6178 1095.48 14.7205 1086.72 14.7272C1077.97 14.7205 1069.86 17.6178 1064.15 22.2108C1058.41 26.7802 1054.77 33.2755 1054.79 40.2987L1054.78 186.887C1054.77 193.906 1058.41 200.402 1064.15 204.972C1069.86 209.565 1077.97 212.462 1086.72 212.455C1095.48 212.462 1103.59 209.565 1109.3 204.965C1115.05 200.391 1118.66 193.897 1118.66 186.887H1097.52Z" fill="#F2F2F0"/>
<path d="M914.876 189.344L935.193 184.694C921.765 147.079 893.467 114.563 855.727 91.4282C818.004 68.2903 770.662 54.5111 719.502 54.5179C668.338 54.5111 620.995 68.2903 583.276 91.4282C545.536 114.563 517.239 147.079 503.811 184.694C501.985 189.801 503.261 195.291 507.26 199.532C511.254 203.776 517.492 206.267 524.133 206.267H914.876C921.511 206.267 927.754 203.776 931.748 199.532C935.747 195.291 937.019 189.801 935.193 184.694L914.876 189.344V172.421H524.133V189.344L544.45 193.995C555.317 163.539 578.297 137.105 608.966 118.303C639.652 99.5109 677.844 88.3717 719.502 88.365C761.152 88.3717 799.348 99.5109 830.034 118.303C860.707 137.105 883.691 163.539 894.558 193.995L914.876 189.344V172.421V189.344Z" fill="#F2F2F0"/>
<path d="M1096.51 200.69H1117.64C1117.65 196.56 1116.45 192.546 1114.37 189.043C1111.25 183.767 1106.29 179.623 1100.46 176.8C1094.61 173.971 1087.78 172.421 1080.66 172.421H358.351C348.846 172.427 339.894 175.162 333.05 180.053C329.629 182.504 326.715 185.526 324.638 189.039C322.563 192.543 321.359 196.56 321.367 200.69C321.359 204.815 322.563 208.833 324.64 212.34C327.77 217.616 332.732 221.756 338.563 224.579C344.406 227.402 351.233 228.949 358.351 228.949H1080.66C1090.16 228.942 1099.11 226.214 1105.96 221.32C1109.38 218.873 1112.29 215.85 1114.37 212.337C1116.45 208.833 1117.65 204.815 1117.64 200.69H1096.51H1075.38H1083.61L1076.16 197.867C1075.68 198.659 1075.37 199.691 1075.38 200.69H1083.61L1076.16 197.867L1081.97 200.067L1078.6 195.603C1077.83 195.978 1076.88 196.655 1076.16 197.867L1081.97 200.067L1078.6 195.603L1080.66 198.334V195.102C1080.11 195.102 1079.39 195.223 1078.6 195.603L1080.66 198.334V195.102H358.351V198.659L361.222 196.087C360.107 195.299 359.085 195.108 358.351 195.102V198.659L361.222 196.087L356.594 200.233L362.848 197.864C362.371 197.061 361.777 196.483 361.222 196.087L356.594 200.233L362.848 197.864L355.387 200.686L363.632 200.69C363.641 199.688 363.326 198.656 362.848 197.864L355.387 200.686L363.632 200.69H355.395L362.848 203.509C363.326 202.721 363.641 201.688 363.632 200.69H355.395L362.848 203.509L357.053 201.316L360.413 205.767C361.187 205.391 362.125 204.718 362.848 203.509L357.053 201.316L360.413 205.767L358.349 203.036L358.351 206.267C358.901 206.267 359.628 206.145 360.413 205.767L358.349 203.036L358.351 206.267H1080.66V202.7L1077.78 205.279C1078.89 206.067 1079.92 206.26 1080.66 206.267V202.7L1077.78 205.279L1082.4 201.14L1076.16 203.507C1076.63 204.308 1077.22 204.883 1077.78 205.279L1082.4 201.14L1076.16 203.507L1083.6 200.686L1075.38 200.69C1075.37 201.685 1075.68 202.717 1076.16 203.507L1083.6 200.686L1075.38 200.69H1096.51Z" fill="#F2F2F0"/>
<path d="M1332.91 41.9438V25.0202H1094.04V41.9438H1115.17V29.0007H1094.04V45.9242H1332.91V29.0007H1311.78V41.9438H1332.91V25.0202V41.9438H1354.05V29.0007C1354.05 24.543 1351.8 20.1869 1347.86 17.0357C1343.93 13.8812 1338.48 12.0771 1332.91 12.0771H1094.04C1088.47 12.0771 1083.03 13.8812 1079.09 17.0357C1075.16 20.1835 1072.91 24.543 1072.91 29.0007V41.9438C1072.91 46.4014 1075.16 50.7609 1079.09 53.9121C1083.03 57.0633 1088.47 58.8673 1094.04 58.8673H1332.91C1338.48 58.8673 1343.93 57.0633 1347.86 53.9121C1351.8 50.7609 1354.05 46.4014 1354.05 41.9438H1332.91Z" fill="#F2F2F0"/>
<path d="M1094.04 41.9438V25.0202H855.166V41.9438H876.299V29.0007H855.166V45.9242H1094.04V29.0007H1072.91V41.9438H1094.04V25.0202V41.9438H1115.17V29.0007C1115.17 24.543 1112.92 20.1869 1108.98 17.0357C1105.05 13.8812 1099.6 12.0771 1094.04 12.0771H855.166C849.599 12.0771 844.155 13.8812 840.224 17.0357C836.285 20.1835 834.032 24.543 834.032 29.0007V41.9438C834.032 46.4014 836.285 50.7609 840.224 53.9121C844.159 57.0633 849.599 58.8673 855.166 58.8673H1094.04C1099.6 58.8673 1105.05 57.0633 1108.98 53.9121C1112.92 50.7609 1115.17 46.4014 1115.17 41.9438H1094.04Z" fill="#F2F2F0"/>
<path d="M1116.93 35.4722H1095.79C1095.79 35.9156 1095.63 36.1559 1095.29 36.4605C1094.9 36.7414 1094.6 36.8633 1094.04 36.8734C1093.49 36.8633 1093.19 36.7448 1092.81 36.4639C1092.46 36.1559 1092.31 35.9122 1092.3 35.4722C1092.31 35.0254 1092.46 34.7851 1092.81 34.477C1093.19 34.1995 1093.49 34.081 1094.04 34.0709C1094.6 34.081 1094.91 34.2029 1095.29 34.4804C1095.63 34.7884 1095.79 35.0254 1095.8 35.4722H1116.93H1138.06C1138.07 25.7919 1133.1 16.8664 1125.17 10.5438C1117.26 4.19065 1106.12 0.213618 1094.04 0.223774C1081.96 0.213618 1070.82 4.19404 1062.92 10.5472C1054.99 16.8698 1050.02 25.7919 1050.03 35.4722C1050.02 45.1524 1054.99 54.0712 1062.92 60.3972C1070.81 66.7469 1081.95 70.7307 1094.04 70.7206C1106.13 70.7307 1117.27 66.7503 1125.17 60.4006C1133.1 54.0712 1138.07 45.1524 1138.07 35.4722H1116.93Z" fill="#F2F2F0"/>
<path d="M1168.29 212.025L1188.61 207.369C1182.7 190.857 1170.3 176.618 1153.77 166.484C1137.25 156.347 1116.42 150.295 1094.04 150.302C1071.66 150.295 1050.83 156.347 1034.32 166.487C1017.78 176.618 1005.38 190.86 999.481 207.371C997.655 212.483 998.927 217.972 1002.93 222.216C1006.92 226.46 1013.16 228.949 1019.8 228.949H1168.29C1174.93 228.949 1181.17 226.458 1185.17 222.214C1189.17 217.968 1190.44 212.478 1188.61 207.369L1168.29 212.025V195.102H1019.8V212.025L1040.12 216.679C1043.46 207.324 1050.54 199.163 1060.01 193.362C1069.49 187.568 1081.16 184.155 1094.04 184.149C1106.92 184.155 1118.6 187.568 1128.08 193.366C1137.55 199.163 1144.64 207.324 1147.98 216.683L1168.29 212.025V195.102V212.025Z" fill="#F2F2F0"/>
<path d="M583.843 41.9438V25.0202H344.961V41.9438H366.092V29.0007H344.961V45.9242H583.843V29.0007H562.709V41.9438H583.843V25.0202V41.9438H604.972V29.0007C604.972 24.543 602.723 20.1869 598.784 17.0357C594.849 13.8846 589.405 12.0771 583.843 12.0771H344.961C339.395 12.0771 333.95 13.8812 330.016 17.0357C326.081 20.1869 323.827 24.543 323.827 29.0007V41.9438C323.827 46.4014 326.081 50.7609 330.017 53.9121C333.95 57.0633 339.395 58.8673 344.961 58.8673H583.843C589.405 58.8673 594.849 57.0633 598.784 53.9121C602.719 50.7576 604.972 46.4014 604.972 41.9438H583.843Z" fill="#F2F2F0"/>
<path d="M344.961 41.9438V25.0202H106.083V41.9438H127.214V29.0007H106.083V45.9242H344.961V29.0007H323.827V41.9438H344.961V25.0202V41.9438H366.092V29.0007C366.092 24.543 363.839 20.1869 359.905 17.0357C355.968 13.8812 350.525 12.0771 344.961 12.0771H106.083C100.517 12.0771 95.0739 13.8812 91.1393 17.0357C87.203 20.1835 84.9494 24.543 84.9494 29.0007V41.9438C84.9494 46.4014 87.203 50.7609 91.1393 53.9121C95.0752 57.0633 100.517 58.8673 106.083 58.8673H344.961C350.525 58.8673 355.968 57.0633 359.903 53.9121C363.839 50.7609 366.092 46.4014 366.092 41.9438H344.961Z" fill="#F2F2F0"/>
<path d="M355.758 186.887H334.625H344.958L337.648 181.035C335.812 182.48 334.615 184.652 334.625 186.887H344.958L337.648 181.035L344.959 186.887L344.961 178.608C342.177 178.599 339.453 179.562 337.648 181.035L344.959 186.887L344.961 178.608V186.894L352.282 181.038C350.48 179.566 347.756 178.599 344.961 178.608V186.894L352.282 181.038L344.971 186.883L355.303 186.887C355.313 184.652 354.117 182.483 352.282 181.038L344.971 186.883L355.303 186.887L355.305 40.2988H344.974L352.282 46.1442C354.117 44.6989 355.313 42.5293 355.303 40.2988H344.974L352.282 46.1442L344.961 40.2886V48.5743C347.756 48.5845 350.48 47.6165 352.282 46.1442L344.961 40.2886V48.5743V40.2954L337.648 46.1475C339.453 47.6232 342.177 48.5845 344.961 48.5743V40.2954L337.648 46.1475L344.958 40.2988H334.625C334.615 42.5293 335.812 44.7022 337.648 46.1475L344.958 40.2988H334.625L334.623 186.887H355.758H376.892V40.2988C376.9 33.2958 373.289 26.7971 367.545 22.221C361.834 17.6178 353.711 14.7171 344.961 14.7273C336.204 14.7171 328.086 17.6212 322.38 22.2244C316.637 26.8005 313.028 33.2958 313.038 40.2988L313.036 186.887C313.028 193.887 316.637 200.382 322.38 204.958C328.086 209.561 336.204 212.465 344.961 212.455C353.711 212.465 361.834 209.565 367.545 204.961C373.289 200.385 376.9 193.887 376.89 186.887H355.758Z" fill="#F2F2F0"/>
<path d="M424.138 212.025L444.456 207.375C438.559 190.86 426.154 176.618 409.622 166.484C393.107 156.347 372.282 150.295 349.897 150.302C327.511 150.295 306.683 156.347 290.168 166.484C273.634 176.62 261.23 190.864 255.335 207.378C253.511 212.489 254.789 217.976 258.786 222.22C262.785 226.46 269.019 228.949 275.658 228.949H424.138C430.774 228.949 437.012 226.46 441.007 222.216C445.005 217.972 446.277 212.485 444.456 207.375L424.138 212.025V195.102H275.658V212.025L295.979 216.672C299.31 207.321 306.392 199.163 315.855 193.366C325.337 187.568 337.016 184.155 349.897 184.149C362.774 184.155 374.454 187.568 383.934 193.366C393.399 199.163 400.484 207.321 403.814 216.677L424.138 212.025V195.102V212.025Z" fill="#F2F2F0"/>
<path d="M367.853 35.4722H346.718C346.706 35.9122 346.556 36.1525 346.206 36.4605C345.821 36.7414 345.514 36.8633 344.961 36.8734C344.401 36.8633 344.095 36.7414 343.712 36.4605C343.362 36.1559 343.212 35.9156 343.202 35.4722C343.212 35.0254 343.366 34.7884 343.709 34.4804C344.092 34.2029 344.395 34.081 344.961 34.0709C345.521 34.081 345.826 34.2029 346.207 34.4838C346.556 34.7884 346.706 35.0254 346.719 35.4722H367.853H388.984C388.996 25.7885 384.023 16.8664 376.085 10.5404C368.183 4.19065 357.041 0.213618 344.961 0.223774C332.877 0.213618 321.734 4.19065 313.832 10.5438C305.894 16.8664 300.924 25.7919 300.936 35.4722C300.924 45.1524 305.896 54.0712 313.83 60.4006C321.73 66.7503 332.872 70.7307 344.961 70.7206C357.046 70.7307 368.187 66.7503 376.088 60.4006C384.023 54.0746 388.996 45.1558 388.986 35.4722H367.853Z" fill="#F2F2F0"/>
<path d="M829.015 333.13V316.207V326.181L837.828 319.127C835.647 317.354 832.396 316.196 829.015 316.207V326.181L837.828 319.127L829.024 326.175H841.467C841.48 323.473 840.047 320.878 837.828 319.127L829.024 326.175H841.467L841.471 290.127H828.998L837.807 297.192C840.038 295.441 841.48 292.824 841.467 290.127H828.998L837.807 297.192L829.011 290.134L829.015 300.106C832.371 300.116 835.613 298.971 837.807 297.192L829.011 290.134L829.015 300.106H841.678V290.125L832.866 297.185C835.063 298.969 838.318 300.116 841.678 300.106V290.125L832.866 297.185L841.674 290.125L829.214 290.127C829.197 292.815 830.634 295.428 832.866 297.185L841.674 290.125L829.214 290.127L829.21 326.175H841.653L832.849 319.134C830.63 320.891 829.201 323.486 829.214 326.175H841.653L832.849 319.134L841.674 326.192L841.678 316.207C838.288 316.196 835.034 317.357 832.849 319.134L841.674 326.192L841.678 316.207H829.015V333.13V350.05H841.678C849.848 350.061 857.444 347.342 862.765 343.048C868.12 338.776 871.489 332.703 871.476 326.175L871.481 290.127C871.489 283.595 868.112 277.513 862.744 273.245C857.41 268.949 849.823 266.252 841.678 266.262H829.015C820.866 266.252 813.288 268.946 807.949 273.234C802.582 277.499 799.192 283.585 799.204 290.127L799.2 326.175C799.192 332.714 802.573 338.789 807.928 343.054C813.254 347.346 820.841 350.061 829.015 350.05V333.13Z" fill="#F2F2F0"/>
<path d="M835.381 382.848H814.247H815.333L814.56 382.228L814.247 382.848H815.333L814.56 382.228L815.329 382.844V381.974L814.56 382.228L815.329 382.844V381.974H620.687V382.857L621.464 382.232L620.687 381.974V382.857L621.464 382.232L620.695 382.848H621.781L621.464 382.232L620.695 382.848H621.781V281.201H620.695L621.464 281.815L621.781 281.201H620.695L621.464 281.815L620.682 281.188L620.687 282.071L621.464 281.815L620.682 281.188L620.687 282.071L815.329 282.075V281.201L814.564 281.817L815.329 282.075V281.201L814.564 281.817L815.333 281.199L814.247 281.201L814.564 281.817L815.333 281.199L814.247 281.201V382.848H835.381H856.51V281.201C856.522 272.151 851.869 263.798 844.451 257.884C837.063 251.941 826.631 248.217 815.329 248.224H620.687C609.38 248.217 598.953 251.945 591.569 257.888C584.155 263.8 579.502 272.151 579.515 281.201V382.848C579.506 391.895 584.155 400.242 591.565 406.158C598.949 412.098 609.376 415.832 620.687 415.821H815.329C826.64 415.832 837.067 412.102 844.451 406.162C851.869 400.245 856.518 391.898 856.51 382.848H835.381Z" fill="#F2F2F0"/>
<path d="M791.803 332.026H770.67C770.657 343.718 764.808 354.152 755.247 361.835C745.648 369.496 732.617 374.18 718.014 374.189C703.398 374.18 690.368 369.492 680.773 361.839C671.212 354.152 665.363 343.72 665.35 332.026C665.363 320.322 671.212 309.886 680.773 302.204C690.372 294.547 703.398 289.863 718.014 289.856C732.617 289.863 745.648 294.547 755.247 302.204C764.808 309.891 770.657 320.325 770.666 332.026H791.803H812.937C812.945 311.086 802.277 291.972 785.129 278.27C768.02 264.542 744.156 256 718.014 256.009C691.864 256 667.996 264.542 650.886 278.27C633.743 291.975 623.075 311.086 623.083 332.026C623.075 352.961 633.743 372.071 650.89 385.769C668 399.5 691.864 408.043 718.014 408.036C744.156 408.043 768.02 399.5 785.129 385.773C802.277 372.071 812.945 352.961 812.932 332.026H791.803Z" fill="#F2F2F0"/>
<path d="M779.453 332.026H758.32C758.311 340.989 753.839 348.954 746.51 354.853C739.148 360.726 729.202 364.303 718.014 364.31C706.809 364.303 696.864 360.722 689.497 354.853C682.168 348.954 677.696 340.986 677.688 332.026C677.696 323.057 682.168 315.093 689.497 309.194C696.86 303.325 706.809 299.747 718.014 299.737C729.206 299.747 739.148 303.325 746.51 309.194C753.839 315.09 758.307 323.057 758.32 332.026H779.453H800.587C800.599 313.818 791.309 297.178 776.402 285.263C761.524 273.319 740.75 265.883 718.014 265.89C695.275 265.883 674.492 273.319 659.61 285.261C644.698 297.174 635.408 313.818 635.417 332.026C635.408 350.23 644.698 366.869 659.61 378.783C674.488 390.727 695.271 398.167 718.014 398.158C740.75 398.167 761.528 390.724 776.402 378.783C791.309 366.869 800.595 350.23 800.587 332.026H779.453Z" fill="#F2F2F0"/>
<path d="M773.468 332.026H752.335C752.322 339.666 748.527 346.432 742.28 351.462C735.999 356.461 727.55 359.503 718.014 359.511C708.471 359.503 700.021 356.461 693.741 351.462C687.498 346.432 683.698 339.666 683.69 332.026C683.698 324.378 687.498 317.611 693.745 312.581C700.021 307.578 708.471 304.54 718.014 304.529C727.55 304.54 735.999 307.578 742.28 312.581C748.522 317.611 752.322 324.378 752.335 332.026H773.468H794.602C794.614 315.137 785.992 299.696 772.166 288.652C758.375 277.577 739.093 270.676 718.014 270.682C696.932 270.676 677.65 277.577 663.854 288.652C650.028 299.696 641.41 315.14 641.419 332.026C641.41 348.906 650.028 364.348 663.854 375.392C677.65 386.466 696.932 393.367 718.014 393.361C739.093 393.367 758.371 386.466 772.166 375.392C785.992 364.348 794.614 348.91 794.602 332.026H773.468Z" fill="#F2F2F0"/>
<path d="M745.39 332.026H724.253C724.244 333.455 723.589 334.599 722.423 335.556C721.227 336.487 719.798 337.016 718.014 337.022C716.218 337.012 714.794 336.487 713.602 335.556C712.439 334.602 711.784 333.458 711.772 332.026C711.784 330.581 712.439 329.437 713.602 328.483C714.794 327.552 716.218 327.027 718.014 327.021C719.798 327.027 721.227 327.552 722.423 328.487C723.585 329.444 724.244 330.588 724.257 332.026H745.39H766.52C766.532 321.347 761.059 311.529 752.314 304.553C743.603 297.547 731.341 293.163 718.014 293.171C704.683 293.163 692.418 297.547 683.706 304.556C674.961 311.536 669.492 321.355 669.505 332.026C669.492 342.692 674.961 352.51 683.706 359.49C692.418 366.493 704.683 370.88 718.014 370.869C731.341 370.876 743.603 366.493 752.314 359.49C761.059 352.514 766.528 342.699 766.524 332.026H745.39Z" fill="#F2F2F0"/>
<path d="M732.922 332.026H711.788H718.002L713.606 328.506C712.515 329.355 711.78 330.7 711.788 332.026H718.002L713.606 328.506L718.01 332.033L718.014 327.048C716.357 327.038 714.658 327.633 713.606 328.506L718.01 332.033L718.014 327.048V332.013L722.402 328.5C721.349 327.63 719.671 327.038 718.014 327.048V332.013L722.402 328.5L718.002 332.026H724.219C724.232 330.689 723.488 329.342 722.402 328.5L718.002 332.026H724.219H717.989L722.393 335.556C723.484 334.71 724.232 333.35 724.219 332.026H717.989L722.393 335.556L718.014 332.043V337.009C719.654 337.016 721.332 336.43 722.393 335.556L718.014 332.043V337.009V332.024L713.614 335.547C714.675 336.426 716.37 337.019 718.014 337.009V332.024L713.614 335.547L718.01 332.024L711.788 332.026C711.776 333.34 712.515 334.697 713.614 335.547L718.01 332.024L711.788 332.026H732.922H754.055C754.068 324.113 749.993 316.786 743.501 311.613C737.043 306.415 727.892 303.152 718.014 303.162C708.132 303.154 698.99 306.411 692.527 311.603C686.035 316.771 681.944 324.1 681.956 332.026C681.944 339.95 686.031 347.268 692.519 352.436C698.977 357.632 708.12 360.902 718.014 360.891C727.909 360.902 737.06 357.628 743.51 352.43C749.993 347.257 754.064 339.937 754.055 332.026H732.922Z" fill="#F2F2F0"/>
<path d="M751.587 308.418H730.453H740.551L731.058 305.636C730.703 306.398 730.449 307.409 730.453 308.418H740.551L731.058 305.636L738.34 307.769L731.983 304.18C731.726 304.479 731.366 304.963 731.058 305.636L738.34 307.769L731.983 304.18L734.849 305.799L732.406 303.77L731.983 304.18L734.849 305.799L732.406 303.77L732.563 303.9L732.41 303.768L732.406 303.77L732.563 303.9L732.41 303.768C732.377 303.833 730.796 304.732 728.167 305.375C725.546 306.049 721.954 306.539 718.014 306.532C714.971 306.536 712.139 306.252 709.793 305.805C706.273 305.172 703.906 304.032 703.623 303.788L703.589 303.764L702.997 304.293L703.639 303.805L703.589 303.764L702.997 304.293L703.639 303.805L699.349 307.079L704.692 305.142C704.231 304.326 703.775 303.92 703.639 303.805L699.349 307.079L704.692 305.142L695.651 308.415L705.546 308.418C705.558 307.17 705.157 305.937 704.692 305.142L695.651 308.415L705.546 308.418H695.452L704.945 311.201C705.296 310.439 705.554 309.427 705.546 308.418H695.452L704.945 311.201L697.667 309.068L704.016 312.653C704.278 312.355 704.637 311.871 704.945 311.201L697.667 309.068L704.016 312.653L701.158 311.034L703.597 313.062L704.016 312.653L701.158 311.034L703.597 313.062L703.458 312.944L703.593 313.065L703.597 313.062L703.458 312.944L703.593 313.065C703.627 312.998 705.212 312.098 707.845 311.455C710.47 310.781 714.067 310.29 718.014 310.294C721.049 310.294 723.877 310.578 726.214 311.021C729.731 311.654 732.093 312.794 732.372 313.039L732.406 313.062L732.994 312.534L732.36 313.022L732.406 313.062L732.994 312.534L732.36 313.022L736.633 309.756L731.307 311.688C731.768 312.501 732.224 312.909 732.36 313.022L736.633 309.756L731.307 311.688L740.335 308.415L730.453 308.418C730.441 309.663 730.847 310.893 731.307 311.688L740.335 308.415L730.453 308.418H751.587H772.72C772.724 305.332 772.002 302.292 770.751 299.574C768.553 294.785 764.943 291.051 761.042 288.164C755.125 283.848 748.404 281.138 741.198 279.255C733.983 277.401 726.197 276.453 718.014 276.449C711.776 276.449 705.765 277.009 700.068 278.085C691.534 279.736 683.639 282.41 676.677 286.966C673.22 289.264 669.978 292.101 667.455 295.716C664.94 299.303 663.262 303.768 663.283 308.418C663.275 311.505 664.002 314.545 665.253 317.266C667.455 322.058 671.064 325.792 674.97 328.672C680.891 332.991 687.616 335.695 694.823 337.578C702.042 339.429 709.827 340.373 718.014 340.38C724.249 340.377 730.251 339.822 735.944 338.745C744.478 337.094 752.369 334.423 759.33 329.865C762.783 327.565 766.029 324.729 768.548 321.114C771.063 317.53 772.741 313.062 772.72 308.418H751.587Z" fill="#F2F2F0"/>
<path d="M718.014 323.456V340.38C729.718 340.349 740.521 338.461 749.997 334.686C755.463 332.49 759.482 328.496 760.991 323.751C762.504 319.006 761.371 313.959 757.893 309.932C753.527 304.879 747.724 300.711 740.906 297.777C734.101 294.846 726.227 293.171 718.014 293.171C709.798 293.171 701.919 294.846 695.11 297.777C688.292 300.715 682.502 304.881 678.131 309.921C674.649 313.946 673.512 318.988 675.021 323.738C676.53 328.483 680.536 332.477 686.002 334.68C695.482 338.461 706.29 340.349 718.014 340.38V323.456V306.532C712.367 306.563 707.435 305.463 705 304.445L695.503 319.563L712.87 329.203C713.445 328.533 714.24 327.968 715.106 327.596C715.985 327.227 716.894 327.024 718.014 327.018C719.122 327.024 720.03 327.227 720.914 327.596C721.784 327.968 722.571 328.533 723.141 329.194L740.517 319.563L731.037 304.438C728.572 305.463 723.627 306.563 718.014 306.532V323.456Z" fill="#F2F2F0"/>
<path d="M708.487 322.837L704.937 339.517C709.206 340.099 713.572 340.38 718.014 340.38C722.448 340.38 726.81 340.099 731.07 339.52C739.236 338.41 745.783 333.641 747.939 327.233C750.09 320.826 747.419 314.074 741.054 309.83C734.836 305.662 726.645 303.148 718.014 303.162C709.383 303.145 701.162 305.662 694.953 309.836C688.639 314.05 685.942 320.884 688.081 327.237C690.219 333.594 696.834 338.414 704.937 339.517L708.487 322.837L722.021 335.834L718.014 331.986V337.009C719.375 337.025 720.977 336.556 722.021 335.834L718.014 331.986V337.009V331.989L714.012 335.841C715.047 336.556 716.611 337.023 718.014 337.009V331.989L714.012 335.841L727.533 322.837L723.995 306.15C722.228 306.391 720.199 306.532 718.014 306.532C715.816 306.532 713.779 306.391 712.033 306.15L708.487 322.837L722.021 335.834L708.487 322.837Z" fill="#F2F2F0"/>
<path d="M808.879 101.237H787.746H799.771L788.308 98.306C787.97 99.1386 787.742 100.184 787.746 101.237H799.771L788.308 98.306L795.692 100.191L789.923 95.869C789.804 95.9739 788.955 96.7118 788.308 98.306L795.692 100.191L789.923 95.869L789.973 95.9062L789.923 95.8656V95.869L789.973 95.9062L789.923 95.8656C789.716 96.0687 787.505 97.3617 783.815 98.5971C778.274 100.516 769.588 102.489 759.203 103.837C748.797 105.201 736.637 106.006 723.703 106.003C712.854 106.003 702.549 105.441 693.369 104.449C686.483 103.708 680.228 102.726 674.89 101.603C670.895 100.763 667.413 99.8426 664.627 98.9389C660.439 97.6189 657.843 96.1804 657.509 95.8825L657.467 95.8521L656.744 96.4478L657.518 95.8961L657.467 95.8521L656.744 96.4478L657.518 95.8961L652.167 99.7479L658.689 97.4327C658.169 96.4985 657.666 96.0281 657.518 95.8961L652.167 99.7479L658.689 97.4327L647.97 101.237H659.665C659.678 99.7715 659.213 98.35 658.689 97.4327L647.97 101.237H659.665H647.644L659.103 104.168C659.441 103.336 659.669 102.29 659.665 101.237H647.644L659.103 104.168L651.719 102.28L657.493 106.602C657.607 106.5 658.456 105.759 659.103 104.168L651.719 102.28L657.493 106.602L657.429 106.555L657.488 106.605L657.493 106.602L657.429 106.555L657.488 106.605C657.695 106.399 659.91 105.109 663.6 103.874C669.141 101.951 677.827 99.978 688.212 98.6309C698.614 97.2669 710.77 96.4613 723.703 96.4647C734.553 96.4613 744.858 97.0265 754.038 98.0183C760.923 98.7595 767.183 99.7411 772.517 100.865C776.516 101.704 779.994 102.625 782.784 103.529C786.968 104.852 789.563 106.291 789.897 106.588L789.94 106.619L790.662 106.016L789.889 106.575L789.94 106.619L790.662 106.016L789.889 106.575L795.236 102.723L788.718 105.038C789.242 105.972 789.745 106.443 789.889 106.575L795.236 102.723L788.718 105.038L799.428 101.234L787.746 101.237C787.733 102.699 788.194 104.121 788.718 105.038L799.428 101.234L787.746 101.237H808.879H830.013C830.017 98.6884 829.489 96.1601 828.571 93.872C826.834 89.543 823.897 86.1447 820.79 83.481C818.043 81.1388 815.101 79.2806 812.037 77.6627C806.665 74.8466 800.853 72.7244 794.492 70.8899C784.956 68.1686 774.153 66.1615 762.234 64.7602C750.331 63.3691 737.343 62.6176 723.703 62.6143C711.032 62.6176 698.927 63.2675 687.73 64.4725C679.332 65.3796 671.445 66.5981 664.158 68.128C658.693 69.2788 653.566 70.6022 648.769 72.1558C641.575 74.5217 635.087 77.2565 629.182 81.4671C626.253 83.5927 623.438 86.1583 621.185 89.4719C618.937 92.755 617.377 96.9115 617.398 101.237C617.394 103.786 617.922 106.311 618.84 108.602C620.577 112.931 623.519 116.326 626.621 118.993C629.368 121.332 632.31 123.19 635.379 124.812C640.751 127.624 646.562 129.746 652.924 131.581C662.455 134.302 673.262 136.309 685.173 137.707C697.075 139.098 710.064 139.85 723.703 139.85C736.371 139.85 748.476 139.2 759.672 137.995C768.075 137.088 775.962 135.873 783.249 134.343C788.714 133.192 793.841 131.869 798.642 130.315C805.832 127.949 812.32 125.218 818.224 121.004C821.154 118.878 823.973 116.316 826.226 112.999C828.474 109.716 830.034 105.559 830.013 101.237H808.879Z" fill="#F2F2F0"/>
<path d="M1133.65 183.844H1112.51H1129.03L1113.23 179.985C1112.79 181.14 1112.51 182.491 1112.51 183.844H1129.03L1113.23 179.985L1127.16 183.387L1116.25 175.579C1115.38 176.364 1114.07 177.789 1113.23 179.985L1127.16 183.387L1116.25 175.579L1122.54 180.081L1117.74 174.492C1117.55 174.598 1117.04 174.882 1116.25 175.579L1122.54 180.081L1117.74 174.492L1119.14 176.117L1117.82 174.444L1117.74 174.492L1119.14 176.117L1117.82 174.444V174.448C1117.71 174.502 1116.86 174.851 1115.5 175.214C1113.47 175.768 1110.34 176.377 1106.63 176.794C1102.91 177.221 1098.6 177.471 1094.04 177.471C1089.52 177.471 1085.26 177.223 1081.58 176.807C1078.81 176.496 1076.37 176.091 1074.45 175.667C1073.01 175.351 1071.86 175.023 1071.13 174.776C1070.58 174.591 1070.27 174.448 1070.27 174.442L1068.04 177.39L1070.78 174.752L1070.27 174.442L1068.04 177.39L1070.78 174.752L1063.05 182.183L1073.43 177.343C1072.31 175.833 1071.3 175.108 1070.78 174.752L1063.05 182.183L1073.43 177.343L1059.5 183.844H1075.58C1075.6 181.241 1074.53 178.808 1073.43 177.343L1059.5 183.844H1075.58H1059.1L1074.87 187.686C1075.31 186.535 1075.58 185.191 1075.58 183.844H1059.1L1074.87 187.686L1060.96 184.299L1071.86 192.079C1072.73 191.294 1074.03 189.872 1074.87 187.686L1060.96 184.299L1071.86 192.079L1065.57 187.588L1070.38 193.169C1070.57 193.06 1071.08 192.776 1071.86 192.079L1065.57 187.588L1070.38 193.169L1068.97 191.534L1070.3 193.214L1070.38 193.169L1068.97 191.534L1070.3 193.214C1070.4 193.159 1071.26 192.806 1072.61 192.444C1074.64 191.89 1077.76 191.28 1081.47 190.86C1085.18 190.437 1089.48 190.183 1094.04 190.183C1098.55 190.183 1102.82 190.431 1106.5 190.851C1109.26 191.159 1111.7 191.568 1113.63 191.991C1115.06 192.309 1116.21 192.634 1116.94 192.885C1117.49 193.071 1117.8 193.214 1117.81 193.216L1120.04 190.261L1117.29 192.906L1117.81 193.216L1120.04 190.261L1117.29 192.906L1125.01 185.496L1114.65 190.32C1115.76 191.825 1116.77 192.55 1117.29 192.906L1125.01 185.496L1114.65 190.32L1128.56 183.844H1112.51C1112.49 186.434 1113.55 188.853 1114.65 190.32L1128.56 183.844H1112.51H1133.65H1154.78C1154.78 181.762 1154.37 179.701 1153.66 177.837C1152.32 174.316 1150.05 171.595 1147.79 169.561C1145.78 167.767 1143.73 166.43 1141.72 165.31C1138.18 163.367 1134.68 162.064 1131.07 160.964C1125.65 159.346 1119.92 158.256 1113.73 157.491C1107.56 156.733 1100.95 156.337 1094.04 156.337C1087.62 156.337 1081.47 156.682 1075.68 157.335C1071.33 157.826 1067.19 158.489 1063.25 159.359C1057.31 160.706 1051.86 162.324 1046.32 165.34C1043.57 166.887 1040.69 168.833 1038.08 171.829C1036.79 173.325 1035.59 175.098 1034.71 177.146C1033.83 179.187 1033.31 181.506 1033.32 183.844C1033.31 185.926 1033.72 187.998 1034.44 189.862C1035.79 193.39 1038.07 196.106 1040.33 198.137C1042.34 199.929 1044.39 201.262 1046.4 202.379C1049.94 204.312 1053.43 205.611 1057.04 206.705C1062.45 208.319 1068.18 209.406 1074.36 210.17C1080.53 210.921 1087.13 211.318 1094.04 211.318C1100.46 211.318 1106.61 210.977 1112.4 210.322C1116.74 209.836 1120.88 209.172 1124.83 208.306C1130.76 206.965 1136.21 205.354 1141.75 202.349C1144.5 200.805 1147.38 198.866 1150 195.874C1151.29 194.381 1152.49 192.607 1153.37 190.556C1154.26 188.512 1154.79 186.19 1154.78 183.844H1133.65Z" fill="#F2F2F0"/>
<path d="M389.489 183.844H368.356H384.868L369.069 179.989C368.627 181.144 368.351 182.491 368.356 183.844H384.868L369.069 179.989L383.002 183.387L372.089 175.585C371.214 176.371 369.913 177.796 369.069 179.989L383.002 183.387L372.089 175.585L378.389 180.091L373.576 174.496C373.392 174.6 372.878 174.885 372.089 175.585L378.389 180.091L373.576 174.496L375.008 176.158L373.661 174.448L373.576 174.496L375.008 176.158L373.661 174.448L373.672 174.466L373.661 174.448L373.672 174.466L373.661 174.448C373.559 174.502 372.7 174.854 371.351 175.214C369.315 175.768 366.19 176.377 362.481 176.794C358.77 177.221 354.463 177.471 349.897 177.471C345.382 177.471 341.116 177.223 337.427 176.807C334.665 176.496 332.223 176.091 330.298 175.667C328.857 175.349 327.706 175.023 326.971 174.774C326.421 174.587 326.108 174.444 326.097 174.438L323.878 177.382L326.616 174.75L326.097 174.438L323.878 177.382L326.616 174.75L318.889 182.183L329.264 177.336C328.146 175.826 327.131 175.105 326.616 174.75L318.889 182.183L329.264 177.336L315.333 183.844H331.415C331.444 181.235 330.367 178.801 329.264 177.336L315.333 183.844H331.415H314.936L330.706 187.69C331.148 186.538 331.42 185.195 331.415 183.844H314.936L330.706 187.69L316.794 184.299L327.696 192.086C328.567 191.3 329.865 189.879 330.706 187.69L316.794 184.299L327.696 192.086L321.41 187.599L326.213 193.173C326.398 193.064 326.91 192.784 327.696 192.086L321.41 187.599L326.213 193.173L324.836 191.576L326.132 193.216L326.213 193.173L324.836 191.576L326.132 193.216H326.134C326.238 193.159 327.098 192.81 328.45 192.448C330.488 191.89 333.617 191.28 337.32 190.86C341.033 190.437 345.339 190.183 349.897 190.183C354.413 190.183 358.677 190.431 362.358 190.851C365.12 191.159 367.555 191.568 369.474 191.991C370.912 192.305 372.054 192.634 372.784 192.885C373.329 193.068 373.639 193.21 373.646 193.214L375.878 190.261L373.123 192.902L373.646 193.214L375.878 190.261L373.123 192.902L380.856 185.49L370.488 190.313C371.594 191.819 372.606 192.546 373.123 192.902L380.856 185.49L370.488 190.313L384.398 183.844H368.356C368.329 186.43 369.39 188.851 370.488 190.313L384.398 183.844H368.356H389.489H410.621C410.625 181.766 410.213 179.705 409.503 177.84C408.163 174.32 405.896 171.602 403.636 169.564C401.633 167.774 399.584 166.433 397.566 165.313C394.03 163.37 390.538 162.064 386.921 160.967C381.507 159.349 375.776 158.256 369.591 157.491C363.413 156.733 356.811 156.337 349.897 156.337C343.477 156.337 337.325 156.682 331.535 157.335C327.187 157.826 323.048 158.489 319.099 159.359C313.163 160.703 307.707 162.324 302.166 165.337C299.414 166.88 296.537 168.826 293.921 171.822C292.629 173.314 291.427 175.091 290.551 177.143C289.672 179.183 289.146 181.502 289.15 183.844C289.147 185.929 289.56 188 290.276 189.869C291.631 193.396 293.909 196.113 296.176 198.145C298.183 199.931 300.232 201.268 302.25 202.383C305.79 204.314 309.28 205.614 312.892 206.708C318.305 208.319 324.034 209.406 330.217 210.17C336.39 210.921 342.988 211.318 349.897 211.318C356.317 211.318 362.468 210.977 368.256 210.322C372.599 209.836 376.735 209.172 380.681 208.306C386.612 206.965 392.062 205.351 397.599 202.344C400.352 200.801 403.226 198.859 405.845 195.867C407.138 194.374 408.341 192.6 409.22 190.549C410.101 188.508 410.628 186.19 410.621 183.844H389.489Z" fill="#F2F2F0"/>
<path d="M359.556 25.4842H338.423H356.8L340.318 18.9517C339.235 20.6677 338.406 23.037 338.423 25.4842H356.8L340.318 18.9517L355.6 25.0069L343.25 15.5737C342.337 16.3454 341.264 17.4285 340.318 18.9517L355.6 25.0069L343.25 15.5737L352.681 22.7798L346.645 13.4719C346.009 13.7528 344.876 14.2368 343.25 15.5737L352.681 22.7798L346.645 13.4719L349.171 17.371L347.431 13.1943C347.365 13.2112 347.127 13.2722 346.645 13.4719L349.171 17.371L347.431 13.1943L347.472 13.2958L347.437 13.1909L347.431 13.1943L347.472 13.2958L347.437 13.1909C347.29 13.2349 346.209 13.4008 344.961 13.394C344.127 13.394 343.382 13.3331 342.922 13.2654L342.545 13.2044L342.479 13.1909L342.134 14.1488L342.565 13.2146L342.479 13.1909L342.134 14.1488L342.565 13.2146L338.969 21.0367L345.849 14.9306C343.783 13.4955 342.827 13.3263 342.565 13.2146L338.969 21.0367L345.849 14.9306L334.699 24.8275L349.362 18.5692C348.165 16.7821 346.856 15.6651 345.849 14.9306L334.699 24.8275L349.362 18.5692L333.164 25.4842H351.506C351.525 22.8475 350.558 20.3225 349.362 18.5692L333.164 25.4842H351.506H333.141L349.622 31.9929C350.698 30.2803 351.522 27.9211 351.506 25.4842H333.141L349.622 31.9929L334.333 25.9546L346.696 35.3709C347.609 34.5991 348.679 33.5161 349.622 31.9929L334.333 25.9546L346.696 35.3709L337.239 28.1682L343.295 37.4829C343.936 37.202 345.07 36.7146 346.696 35.3709L337.239 28.1682L343.295 37.4829L340.744 33.5601L342.501 37.7673C342.57 37.7469 342.808 37.686 343.295 37.4829L340.744 33.5601L342.501 37.7673L342.225 37.1038L342.479 37.7706L342.501 37.7673L342.225 37.1038L342.479 37.7706C342.482 37.7571 343.625 37.554 344.961 37.5675C345.793 37.5675 346.539 37.6285 347 37.6962L347.378 37.7571L347.441 37.7706L347.784 36.8127L347.356 37.7469L347.441 37.7706L347.784 36.8127L347.356 37.7469L350.947 29.9283L344.074 36.0309C346.139 37.466 347.094 37.6352 347.356 37.7469L350.947 29.9283L344.074 36.0309L355.22 26.1374L340.561 32.3923C341.758 34.1761 343.067 35.2964 344.074 36.0309L355.22 26.1374L340.561 32.3923L356.751 25.4842H338.423C338.403 28.1141 339.369 30.6391 340.561 32.3923L356.751 25.4842H338.423H359.556H380.688C380.704 22.3736 379.674 19.3612 378.206 17.0122C376.923 14.9374 375.37 13.3195 373.846 12.0367C371.153 9.79603 368.557 8.47937 366.137 7.45719C362.497 5.95777 359.102 5.13869 355.627 4.55652C352.161 3.99465 348.631 3.72385 344.961 3.72046C341.764 3.72046 338.672 3.93031 335.639 4.3534C333.364 4.67494 331.12 5.11498 328.848 5.73438C325.447 6.69902 321.939 7.91751 318.031 10.5509C316.1 11.8878 314.037 13.6512 312.28 16.1593C310.531 18.6301 309.217 21.981 309.241 25.4842C309.224 28.5947 310.256 31.6105 311.725 33.9595C313.01 36.0309 314.563 37.6488 316.084 38.9316C318.777 41.1689 321.369 42.4821 323.788 43.5043C327.428 45.0037 330.819 45.8228 334.293 46.4016C337.757 46.9668 341.289 47.2376 344.961 47.2376C348.155 47.2376 351.246 47.0312 354.279 46.6081C356.553 46.2866 358.795 45.8499 361.065 45.2305C364.465 44.2659 367.968 43.0508 371.874 40.4242C373.805 39.0907 375.871 37.334 377.633 34.8259C379.387 32.3517 380.709 28.9975 380.688 25.4842H359.556Z" fill="#F2F2F0"/>
<path d="M1108.63 25.4842H1087.49H1105.87L1089.38 18.9618C1088.3 20.6779 1087.48 23.0404 1087.49 25.4842H1105.87L1089.38 18.9618L1104.67 25.0103L1092.31 15.5839C1091.4 16.3556 1090.32 17.4387 1089.38 18.9618L1104.67 25.0103L1092.31 15.5839L1101.75 22.7866L1095.71 13.4752C1095.07 13.7596 1093.94 14.2436 1092.31 15.5839L1101.75 22.7866L1095.71 13.4752L1098.25 17.3879L1096.5 13.1943C1096.43 13.2146 1096.2 13.2755 1095.71 13.4752L1098.25 17.3879L1096.5 13.1943L1096.56 13.3229L1096.51 13.1909L1096.5 13.1943L1096.56 13.3229L1096.51 13.1909C1096.37 13.2349 1095.29 13.4008 1094.04 13.3906C1093.21 13.394 1092.46 13.3331 1092 13.2654L1091.62 13.2044L1091.56 13.1909L1091.24 14.0811L1091.64 13.2112L1091.56 13.1909L1091.24 14.0811L1091.64 13.2112L1088.05 21.0231L1094.91 14.9239C1092.85 13.4921 1091.9 13.3229 1091.64 13.2112L1088.05 21.0231L1094.91 14.9239L1083.77 24.8275L1098.43 18.5624C1097.24 16.7753 1095.93 15.6583 1094.91 14.9239L1083.77 24.8275L1098.43 18.5624L1082.23 25.4842H1100.58C1100.6 22.8441 1099.63 20.3157 1098.43 18.5624L1082.23 25.4842H1100.58H1082.21L1098.69 31.9997C1099.77 30.2871 1100.6 27.9245 1100.58 25.4842H1082.21L1098.69 31.9997L1083.41 25.958L1095.76 35.3777C1096.68 34.6059 1097.75 33.5262 1098.69 31.9997L1083.41 25.958L1095.76 35.3777L1086.32 28.175L1092.37 37.4863C1093 37.202 1094.14 36.718 1095.76 35.3777L1086.32 28.175L1092.37 37.4863L1089.83 33.577L1091.58 37.7673C1091.64 37.747 1091.88 37.686 1092.37 37.4863L1089.83 33.577L1091.58 37.7673L1091.52 37.6353L1091.57 37.7673H1091.58L1091.52 37.6353L1091.57 37.7673C1091.71 37.7267 1092.79 37.5574 1094.04 37.5676C1094.87 37.5676 1095.62 37.6285 1096.08 37.6962L1096.45 37.7571L1096.52 37.7706L1096.87 36.7789L1096.43 37.747L1096.52 37.7706L1096.87 36.7789L1096.43 37.747L1100.03 29.9147L1093.14 36.0208C1095.2 37.4626 1096.16 37.6319 1096.43 37.747L1100.03 29.9147L1093.14 36.0208L1104.29 26.134L1089.62 32.3822C1090.82 34.1659 1092.13 35.2863 1093.14 36.0208L1104.29 26.134L1089.62 32.3822L1105.82 25.4842H1087.49C1087.47 28.1073 1088.44 30.6289 1089.62 32.3822L1105.82 25.4842H1087.49H1108.63H1129.76C1129.77 22.3804 1128.75 19.368 1127.28 17.0224C1126 14.9476 1124.45 13.3297 1122.93 12.0435C1120.24 9.8028 1117.64 8.48614 1115.22 7.46058C1111.58 5.95777 1108.18 5.13868 1104.71 4.55651C1101.24 3.99465 1097.71 3.72384 1094.04 3.72046C1090.84 3.72046 1087.75 3.93031 1084.72 4.3534C1082.45 4.67494 1080.2 5.11498 1077.93 5.731C1074.53 6.69902 1071.02 7.91412 1067.12 10.5475C1065.18 11.8844 1063.12 13.6444 1061.36 16.1525C1059.61 18.6233 1058.29 21.9776 1058.32 25.4842C1058.3 28.5981 1059.33 31.6172 1060.81 33.9628C1062.09 36.041 1063.64 37.6556 1065.17 38.9384C1067.86 41.1723 1070.46 42.4855 1072.87 43.5077C1076.51 45.0038 1079.9 45.8228 1083.37 46.4016C1086.84 46.9669 1090.37 47.2377 1094.04 47.2411C1097.24 47.2377 1100.33 47.0312 1103.36 46.6081C1105.63 46.2866 1107.87 45.8499 1110.14 45.2305C1113.55 44.2625 1117.05 43.0474 1120.96 40.4175C1122.89 39.0805 1124.95 37.3239 1126.71 34.8158C1128.46 32.3416 1129.78 28.9907 1129.76 25.4842H1108.63Z" fill="#F2F2F0"/>
<path d="M789.436 287.606H768.303C768.29 295.38 772.297 302.58 778.675 307.66C785.02 312.771 794.01 315.977 803.718 315.966C813.427 315.973 822.413 312.771 828.757 307.663C835.135 302.586 839.146 295.387 839.134 287.606C839.146 279.828 835.135 272.629 828.757 267.548C822.413 262.444 813.427 259.239 803.718 259.248C794.01 259.239 785.02 262.444 778.675 267.551C772.297 272.631 768.29 279.834 768.303 287.606H789.436H810.57H803.718L808.562 291.485C809.771 290.544 810.582 289.062 810.57 287.606H803.718L808.562 291.485L803.718 287.606V293.093C805.532 293.102 807.383 292.455 808.562 291.485L803.718 287.606V293.093V287.609L798.875 291.488C800.05 292.455 801.892 293.102 803.718 293.093V287.609L798.875 291.488L803.718 287.606H796.867C796.854 289.068 797.666 290.548 798.875 291.488L803.718 287.606H796.867H803.718L798.875 283.724C797.666 284.664 796.854 286.148 796.867 287.606H803.718L798.875 283.724L803.718 287.602V282.119C801.892 282.112 800.05 282.759 798.875 283.724L803.718 287.602V282.119V287.602L808.562 283.727C807.383 282.759 805.532 282.108 803.718 282.119V287.602L808.562 283.727L803.718 287.606H810.57C810.582 286.154 809.771 284.671 808.562 283.727L803.718 287.606H810.57H789.436Z" fill="#F2F2F0"/>
<path d="M792.864 287.606H771.731C771.718 294.629 775.345 301.141 781.101 305.721C786.82 310.327 794.948 313.232 803.718 313.221C812.489 313.232 820.625 310.324 826.344 305.71C832.096 301.125 835.706 294.616 835.693 287.606C835.706 280.593 832.088 274.084 826.331 269.5C820.608 264.894 812.48 261.993 803.718 262.004C794.961 261.997 786.837 264.891 781.11 269.494C775.353 274.067 771.718 280.579 771.731 287.606H792.864H813.993H803.697L810.976 293.444C812.801 292.013 814.006 289.839 813.993 287.606H803.697L810.976 293.444L803.718 287.626V295.851C806.487 295.857 809.179 294.907 810.976 293.444L803.718 287.626V295.851V287.608L796.444 293.438C798.241 294.903 800.954 295.857 803.718 295.851V287.608L796.444 293.438L803.723 287.606H793.431C793.418 289.826 794.614 291.995 796.444 293.438L803.723 287.606H793.431H803.701L796.432 281.793C794.606 283.236 793.418 285.395 793.431 287.606H803.701L796.432 281.793L803.718 287.619V279.378C800.941 279.367 798.224 280.329 796.432 281.793L803.718 287.619V279.378V287.606L810.988 281.787C809.196 280.325 806.495 279.367 803.718 279.378V287.606L810.988 281.787L803.718 287.606H813.993C814.006 285.382 812.81 283.219 810.988 281.787L803.718 287.606H813.993H792.864Z" fill="#F2F2F0"/>
<path d="M796.563 283.186H775.429C775.417 285.774 776.152 288.309 777.276 290.392C779.28 294.074 782.091 296.345 784.504 297.892C788.211 300.183 791.436 301.162 794.525 301.878C797.615 302.555 800.612 302.85 803.719 302.857C806.085 302.857 808.393 302.678 810.726 302.299C814.222 301.689 817.764 300.806 821.906 298.498C823.956 297.317 826.226 295.709 828.284 293.187C829.298 291.928 830.237 290.435 830.913 288.73C831.593 287.026 831.991 285.115 831.987 283.186C831.999 280.626 831.281 278.109 830.173 276.033C828.199 272.358 825.393 270.059 822.967 268.499C819.252 266.187 816.005 265.199 812.912 264.481C809.813 263.8 806.817 263.51 803.719 263.503C801.36 263.503 799.056 263.683 796.732 264.058C793.236 264.664 789.69 265.54 785.535 267.853C783.477 269.033 781.199 270.645 779.136 273.177C778.117 274.436 777.179 275.935 776.499 277.645C775.822 279.35 775.425 281.259 775.429 283.186H796.563H817.692H798.342L816.158 289.248C817.079 287.528 817.705 285.371 817.692 283.186H798.342L816.158 289.248L799.357 283.527L810.709 295.024C812.299 294.002 814.501 292.3 816.158 289.248L799.357 283.527L810.709 295.024L802.036 286.245L805.781 297.107C806.774 296.853 808.245 296.534 810.709 295.024L802.036 286.245L805.781 297.107L803.719 291.129V297.35C804.221 297.343 804.784 297.32 805.781 297.107L803.719 291.129V297.35V291.576L802.286 297.228C802.907 297.326 803.334 297.347 803.719 297.35V291.576L802.286 297.228L804.893 286.955L797.353 295.41C799.978 296.849 801.352 297.035 802.286 297.228L804.893 286.955L797.353 295.41L807.687 283.828L792.763 291.518C794.399 293.529 796.068 294.662 797.353 295.41L807.687 283.828L792.763 291.518L808.774 283.266L790.62 287.859C791.182 289.287 791.956 290.517 792.763 291.518L808.774 283.266L790.62 287.859L809.112 283.182L789.724 283.186C789.72 284.813 790.054 286.434 790.62 287.859L809.112 283.182L789.724 283.186H809.086L791.267 277.109C790.341 278.829 789.711 280.986 789.724 283.186H809.086L791.267 277.109L808.068 282.837L796.698 271.346C795.113 272.368 792.919 274.06 791.267 277.109L808.068 282.837L796.698 271.346L805.388 280.129L801.626 269.261C800.625 269.515 799.149 269.836 796.698 271.346L805.388 280.129L801.626 269.261L803.719 275.306V269.01C803.203 269.016 802.628 269.044 801.626 269.261L803.719 275.306V269.01V274.764L805.151 269.131C804.534 269.033 804.112 269.01 803.719 269.01V274.764L805.151 269.131L802.552 279.339L810.02 270.923C807.421 269.504 806.073 269.324 805.151 269.131L802.552 279.339L810.02 270.923L799.737 282.515L814.606 274.781C812.958 272.778 811.297 271.661 810.02 270.923L799.737 282.515L814.606 274.781L798.625 283.09L816.775 278.454C816.2 277.011 815.418 275.783 814.606 274.781L798.625 283.09L816.775 278.454L798.27 283.182L817.692 283.186C817.696 281.53 817.35 279.884 816.775 278.454L798.27 283.182L817.692 283.186H796.563Z" fill="#F2F2F0"/>
<path d="M791.757 269.613H647.239V233.863H791.757V269.613Z" fill="#151821"/>
<path d="M844.759 242.589H594.236V206.844H844.759V242.589Z" fill="#283243"/>
<path d="M1097.52 186.887C1097.52 191.66 1092.68 195.531 1086.72 195.531C1080.76 195.531 1075.92 191.66 1075.92 186.887V40.2987C1075.92 35.5263 1080.76 31.6508 1086.72 31.6508C1092.68 31.6508 1097.52 35.5263 1097.52 40.2987V186.887Z" fill="#151821"/>
<path d="M914.876 189.344C890.581 121.275 812.316 71.4417 719.502 71.4417C626.689 71.4417 548.428 121.275 524.133 189.344H914.876Z" fill="#283243"/>
<path d="M1096.51 200.69C1096.51 194.428 1089.42 189.344 1080.66 189.344H358.351C349.589 189.344 342.501 194.428 342.501 200.69C342.501 206.948 349.589 212.025 358.351 212.025H1080.66C1089.42 212.025 1096.51 206.948 1096.51 200.69Z" fill="#151821"/>
<path d="M1332.91 41.9438H1094.04V29.0006H1332.91V41.9438Z" fill="#283243"/>
<path d="M1094.04 41.9438H855.165V29.0006H1094.04V41.9438Z" fill="#283243"/>
<path d="M1116.93 35.4721C1116.93 45.5957 1106.69 53.7969 1094.04 53.7969C1081.41 53.7969 1071.17 45.5957 1071.17 35.4721C1071.17 25.3451 1081.41 17.1473 1094.04 17.1473C1106.69 17.1473 1116.93 25.3451 1116.93 35.4721Z" fill="#52616B"/>
<path d="M1168.29 212.025C1159.05 186.16 1129.31 167.226 1094.04 167.226C1058.78 167.226 1029.04 186.16 1019.8 212.025H1168.29Z" fill="#1E2022"/>
<path d="M583.843 41.9438H344.961V29.0006H583.843V41.9438Z" fill="#283243"/>
<path d="M344.961 41.9438H106.083V29.0006H344.961V41.9438Z" fill="#283243"/>
<path d="M355.759 186.887C355.759 191.66 350.929 195.531 344.961 195.531C339.001 195.531 334.171 191.66 334.171 186.887V40.2987C334.171 35.5263 339.001 31.6508 344.961 31.6508C350.929 31.6508 355.759 35.5263 355.759 40.2987V186.887Z" fill="#151821"/>
<path d="M424.138 212.025C414.907 186.16 385.16 167.226 349.897 167.226C314.631 167.226 284.884 186.16 275.658 212.025H424.138Z" fill="#1E2022"/>
<path d="M367.853 35.4721C367.853 45.5957 357.603 53.7969 344.961 53.7969C332.314 53.7969 322.069 45.5957 322.069 35.4721C322.069 25.3451 332.314 17.1473 344.961 17.1473C357.603 17.1473 367.853 25.3451 367.853 35.4721Z" fill="#52616B"/>
<path d="M829.015 333.13C824.226 333.13 820.338 330.016 820.338 326.174V290.127C820.338 286.286 824.226 283.186 829.015 283.186H841.678C846.467 283.186 850.347 286.286 850.347 290.127V326.174C850.347 330.016 846.467 333.13 841.678 333.13H829.015Z" fill="#1C212D"/>
<path d="M835.38 382.848C835.38 391.706 826.403 398.898 815.329 398.898H620.687C609.617 398.898 600.648 391.706 600.648 382.848V281.201C600.648 272.338 609.617 265.152 620.687 265.152H815.329C826.403 265.152 835.38 272.338 835.38 281.201V382.848Z" fill="#283243"/>
<path d="M791.803 332.026C791.803 364.656 758.764 391.113 718.014 391.113C677.252 391.113 644.221 364.656 644.221 332.026C644.221 299.388 677.252 272.933 718.014 272.933C758.764 272.933 791.803 299.388 791.803 332.026Z" fill="#1C212D"/>
<path d="M779.453 332.027C779.453 359.195 751.942 381.237 718.014 381.237C684.07 381.237 656.554 359.195 656.554 332.027C656.554 304.847 684.07 282.813 718.014 282.813C751.942 282.813 779.453 304.847 779.453 332.027Z" fill="#E9E9E9"/>
<path d="M773.468 332.026C773.468 356.552 748.632 376.437 718.014 376.437C687.388 376.437 662.556 356.552 662.556 332.026C662.556 307.491 687.388 287.606 718.014 287.606C748.632 287.606 773.468 307.491 773.468 332.026Z" fill="#C9D6DF"/>
<path d="M745.39 332.026C745.39 344.13 733.129 353.946 718.014 353.946C702.887 353.946 690.638 344.13 690.638 332.026C690.638 319.913 702.887 310.097 718.014 310.097C733.129 310.097 745.39 319.913 745.39 332.026Z" fill="#52616B"/>
<path d="M732.922 332.027C732.922 338.617 726.252 343.972 718.014 343.972C709.776 343.972 703.09 338.617 703.09 332.027C703.09 325.426 709.776 320.086 718.014 320.086C726.252 320.086 732.922 325.426 732.922 332.027Z" fill="#1E2022"/>
<path d="M751.587 308.418C751.587 316.727 736.557 323.456 718.014 323.456C699.455 323.456 684.416 316.727 684.416 308.418C684.416 300.109 699.455 293.373 718.014 293.373C736.557 293.373 751.587 300.109 751.587 308.418Z" fill="#F0F5F9" fill-opacity="0.5"/>
<path d="M718.014 323.456C726.675 323.456 734.549 321.963 740.517 319.563C735.58 313.85 727.338 310.097 718.014 310.097C708.677 310.097 700.448 313.85 695.503 319.563C701.458 321.963 709.328 323.456 718.014 323.456Z" fill="#52616B"/>
<path d="M708.487 322.837C711.492 323.247 714.696 323.456 718.014 323.456C721.324 323.456 724.519 323.247 727.533 322.837C724.946 321.11 721.628 320.086 718.014 320.086C714.384 320.086 711.07 321.11 708.487 322.837Z" fill="#1E2022"/>
<path d="M808.879 101.237C808.879 113.215 770.75 122.926 723.703 122.926C676.669 122.926 638.532 113.215 638.532 101.237C638.532 89.2585 676.669 79.541 723.703 79.541C770.75 79.541 808.879 89.2585 808.879 101.237Z" fill="#3B4C64"/>
<path d="M1133.65 183.844C1133.65 189.676 1115.92 194.395 1094.04 194.395C1072.18 194.395 1054.45 189.676 1054.45 183.844C1054.45 177.995 1072.18 173.26 1094.04 173.26C1115.92 173.26 1133.65 177.995 1133.65 183.844Z" fill="#52616B"/>
<path d="M389.489 183.844C389.489 189.676 371.774 194.395 349.897 194.395C328.037 194.395 310.284 189.676 310.284 183.844C310.284 177.995 328.037 173.26 349.897 173.26C371.774 173.26 389.489 177.995 389.489 183.844Z" fill="#52616B"/>
<path d="M359.556 25.4838C359.556 28.1544 353.018 30.3173 344.961 30.3173C336.904 30.3173 330.374 28.1544 330.374 25.4838C330.374 22.8065 336.904 20.6436 344.961 20.6436C353.018 20.6436 359.556 22.8065 359.556 25.4838Z" fill="#C9D6DF"/>
<path d="M1108.63 25.4838C1108.63 28.1544 1102.1 30.3173 1094.04 30.3173C1085.99 30.3173 1079.45 28.1544 1079.45 25.4838C1079.45 22.8065 1085.99 20.6436 1094.04 20.6436C1102.1 20.6436 1108.63 22.8065 1108.63 25.4838Z" fill="#C9D6DF"/>
<path d="M789.436 287.606C789.436 293.929 795.827 299.042 803.718 299.042C811.605 299.042 818 293.929 818 287.606C818 281.286 811.605 276.172 803.718 276.172C795.827 276.172 789.436 281.286 789.436 287.606Z" fill="white"/>
<path d="M792.864 287.606C792.864 292.405 797.725 296.302 803.718 296.302C809.712 296.302 814.564 292.405 814.564 287.606C814.564 282.813 809.712 278.928 803.718 278.928C797.725 278.928 792.864 282.813 792.864 287.606Z" fill="#EF2D2E"/>
<path d="M796.563 283.186C796.563 284.698 799.771 285.934 803.718 285.934C807.666 285.934 810.857 284.698 810.857 283.186C810.857 281.659 807.666 280.427 803.718 280.427C799.771 280.427 796.563 281.659 796.563 283.186Z" fill="#F25846"/>
</svg>
